<svg height="24" width="24" viewBox="0 0 24 24">
   <path d="m 15,5 h 2 V 3 h -2"/>
   <path d="m 15,13 h 2 v -2 h -2"/>
   <path d="m 15,21 h 2 v -2 h -2"/>
   <path d="m 19,5 h 2 V 3 h -2"/>
   <path d="m 19,9 h 2 V 7 h -2"/>
   <path d="m 19,21 h 2 v -2 h -2"/>
   <path d="m 19,13 h 2 v -2 h -2"/>
   <path d="m 19,17 h 2 v -2 h -2"/>
   <path d="M 3,17 H 5 V 15 H 3"/>
   <path d="M 3,21 H 5 V 19 H 3"/>
   <path d="m 11,21 h 2 v -2 h -2"/>
   <path d="m 11,17 h 2 v -2 h -2"/>
   <path d="M 7,21 H 9 V 19 H 7"/>
   <rect width="8" height="8" x="4" y="4" style="fill:none;stroke:#000000;stroke-width:2;stroke-miterlimit:4;stroke-dasharray:none"/>
</svg>
