<?xml version="1.0"?>
<svg version="1.1" xmlns="http://www.w3.org/2000/svg" xmlns:xlink="http://www.w3.org/1999/xlink" width="24" height="24">
    <desc iVinci="yes" version="4.6" gridStep="20" showGrid="no" snapToGrid="no" codePlatform="0"/>
    <g id="Layer1" name="Layer 1" opacity="1">
        <g id="Shape1">
            <desc shapeID="1" type="0" basicInfo-basicType="0" basicInfo-roundedRectRadius="12" basicInfo-polygonSides="6" basicInfo-starPoints="5" bounding="rect(-11.32,-10,22.64,20)" text="" font-familyName="" font-pixelSize="20" font-bold="0" font-underline="0" font-alignment="1" strokeStyle="0" markerStart="0" markerEnd="0" shadowEnabled="0" shadowOffsetX="0" shadowOffsetY="2" shadowBlur="4" shadowOpacity="160" blurEnabled="0" blurRadius="4" transform="matrix(1,0,0,1,11.32,12)" pers-center="0,0" pers-size="0,0" pers-start="0,0" pers-end="0,0" locked="0" mesh="" flag=""/>
            <path id="shapePath1" d="M12.63,2 C18.16,2 22.64,6.5 22.64,12 C22.64,17.5 18.16,22 12.63,22 C9.12,22 6.05,20.18 4.26,17.43 L5.84,16.18 C7.25,18.47 9.76,20 12.64,20 C17.0583,20 20.64,16.4183 20.64,12 C20.64,7.58172 17.0583,4 12.64,4 C8.56,4 5.2,7.06 4.71,11 L7.47,11 L3.73,14.73 L0,11 L2.69,11 C3.19,5.95 7.45,2 12.63,2 M15.59,10.24 C16.09,10.25 16.5,10.65 16.5,11.16 L16.5,15.77 C16.5,16.27 16.09,16.69 15.58,16.69 L10.05,16.69 C9.54,16.69 9.13,16.27 9.13,15.77 L9.13,11.16 C9.13,10.65 9.54,10.25 10.04,10.24 L10.04,9.23 C10.04,7.7 11.29,6.46 12.81,6.46 C14.34,6.46 15.59,7.7 15.59,9.23 L15.59,10.24 M12.81,7.86 C12.06,7.86 11.44,8.47 11.44,9.23 L11.44,10.24 L14.19,10.24 L14.19,9.23 C14.19,8.47 13.57,7.86 12.81,7.86 Z" style="stroke:none;fill-rule:nonzero;fill:#000000;fill-opacity:1;"/>
        </g>
    </g>
</svg>
