<svg height="24" width="24" viewBox="0 0 24 24">
   <path d="m 15.5,12 c 1.38,0 2.49,-1.12 2.49,-2.5 C 17.99,8.12 16.88,7 15.5,7 14.12,7 13,8.12 13,9.5 13,10.88 14.12,12 15.5,12 Z M 8,11 C 9.66,11 10.99,9.66 10.99,8 10.99,6.34 9.66,5 8,5 6.34,5 5,6.34 5,8 c 0,1.66 1.34,3 3,3 z m 7.5,3 C 13.67,14 10,14.92 10,16.75 l 0,2.25 11,0 0,-2.25 C 21,14.92 17.33,14 15.5,14 Z M 8,13 C 5.67,13 1,14.17 1,16.5 L 1,19 8,19 8,16.75 C 8,15.9 8.33,14.41 10.37,13.28 9.5,13.1 8.66,13 8,13 Z"/>
      <g transform="translate(1,-2)">
         <path d="m 20,12 0,-5 2,0 0,5 -2,0"/>
         <path d="m 20,16 0,-2 2,0 0,2 -2,0 z"/>
      </g>
</svg>
