<?xml version="1.0" encoding="UTF-8" standalone="no"?>
<!-- Created with Inkscape (http://www.inkscape.org/) -->

<svg
   xmlns:dc="http://purl.org/dc/elements/1.1/"
   xmlns:cc="http://creativecommons.org/ns#"
   xmlns:rdf="http://www.w3.org/1999/02/22-rdf-syntax-ns#"
   xmlns:svg="http://www.w3.org/2000/svg"
   xmlns="http://www.w3.org/2000/svg"
   xmlns:sodipodi="http://sodipodi.sourceforge.net/DTD/sodipodi-0.dtd"
   xmlns:inkscape="http://www.inkscape.org/namespaces/inkscape"
   width="260"
   height="100"
   viewBox="0 0 260 100"
   version="1.1"
   id="svg5680"
   inkscape:version="0.92.2 5c3e80d, 2017-08-06"
   sodipodi:docname="RevisedTalkOutlines.svg"
   inkscape:export-filename="/home/marlon/QtProjects/theocbase/docs/images/RevisedTalkOutlines.png"
   inkscape:export-xdpi="96"
   inkscape:export-ydpi="96">
  <defs
     id="defs5674">
    <clipPath
       clipPathUnits="userSpaceOnUse"
       id="clipWmfPath1">
      <path
         inkscape:connector-curvature="0"
         d="M 0,0 H 793.70079 V 1122.5197 H 0 Z"
         id="path1347" />
    </clipPath>
    <clipPath
       clipPathUnits="userSpaceOnUse"
       id="clipPath1553">
      <path
         inkscape:connector-curvature="0"
         d="M 0,0 H 793.70079 V 1122.5197 H 0 Z"
         id="path1551" />
    </clipPath>
    <clipPath
       clipPathUnits="userSpaceOnUse"
       id="clipPath1557">
      <path
         inkscape:connector-curvature="0"
         d="M 0,0 H 793.70079 V 1122.5197 H 0 Z"
         id="path1555" />
    </clipPath>
    <clipPath
       clipPathUnits="userSpaceOnUse"
       id="clipPath1561">
      <path
         inkscape:connector-curvature="0"
         d="M 0,0 H 793.70079 V 1122.5197 H 0 Z"
         id="path1559" />
    </clipPath>
    <clipPath
       clipPathUnits="userSpaceOnUse"
       id="clipPath1565">
      <path
         inkscape:connector-curvature="0"
         d="M 0,0 H 793.70079 V 1122.5197 H 0 Z"
         id="path1563" />
    </clipPath>
    <clipPath
       clipPathUnits="userSpaceOnUse"
       id="clipPath1569">
      <path
         inkscape:connector-curvature="0"
         d="M 0,0 H 793.70079 V 1122.5197 H 0 Z"
         id="path1567" />
    </clipPath>
    <clipPath
       clipPathUnits="userSpaceOnUse"
       id="clipPath1573">
      <path
         inkscape:connector-curvature="0"
         d="M 0,0 H 793.70079 V 1122.5197 H 0 Z"
         id="path1571" />
    </clipPath>
    <clipPath
       clipPathUnits="userSpaceOnUse"
       id="clipPath1577">
      <path
         inkscape:connector-curvature="0"
         d="M 0,0 H 793.70079 V 1122.5197 H 0 Z"
         id="path1575" />
    </clipPath>
    <clipPath
       clipPathUnits="userSpaceOnUse"
       id="clipPath1581">
      <path
         inkscape:connector-curvature="0"
         d="M 0,0 H 793.70079 V 1122.5197 H 0 Z"
         id="path1579" />
    </clipPath>
    <clipPath
       clipPathUnits="userSpaceOnUse"
       id="clipPath1585">
      <path
         inkscape:connector-curvature="0"
         d="M 0,0 H 793.70079 V 1122.5197 H 0 Z"
         id="path1583" />
    </clipPath>
    <clipPath
       clipPathUnits="userSpaceOnUse"
       id="clipPath1589">
      <path
         inkscape:connector-curvature="0"
         d="M 0,0 H 793.70079 V 1122.5197 H 0 Z"
         id="path1587" />
    </clipPath>
    <clipPath
       clipPathUnits="userSpaceOnUse"
       id="clipPath1593">
      <path
         inkscape:connector-curvature="0"
         d="M 0,0 H 793.70079 V 1122.5197 H 0 Z"
         id="path1591" />
    </clipPath>
    <clipPath
       clipPathUnits="userSpaceOnUse"
       id="clipPath1597">
      <path
         inkscape:connector-curvature="0"
         d="M 0,0 H 793.70079 V 1122.5197 H 0 Z"
         id="path1595" />
    </clipPath>
    <clipPath
       clipPathUnits="userSpaceOnUse"
       id="clipPath1601">
      <path
         inkscape:connector-curvature="0"
         d="M 0,0 H 793.70079 V 1122.5197 H 0 Z"
         id="path1599" />
    </clipPath>
    <clipPath
       clipPathUnits="userSpaceOnUse"
       id="clipPath1605">
      <path
         inkscape:connector-curvature="0"
         d="M 0,0 H 793.70079 V 1122.5197 H 0 Z"
         id="path1603" />
    </clipPath>
    <clipPath
       clipPathUnits="userSpaceOnUse"
       id="clipPath1609">
      <path
         inkscape:connector-curvature="0"
         d="M 0,0 H 793.70079 V 1122.5197 H 0 Z"
         id="path1607" />
    </clipPath>
    <clipPath
       clipPathUnits="userSpaceOnUse"
       id="clipPath1613">
      <path
         inkscape:connector-curvature="0"
         d="M 0,0 H 793.70079 V 1122.5197 H 0 Z"
         id="path1611" />
    </clipPath>
    <clipPath
       clipPathUnits="userSpaceOnUse"
       id="clipPath1617">
      <path
         inkscape:connector-curvature="0"
         d="M 0,0 H 793.70079 V 1122.5197 H 0 Z"
         id="path1615" />
    </clipPath>
    <clipPath
       clipPathUnits="userSpaceOnUse"
       id="clipPath1621">
      <path
         inkscape:connector-curvature="0"
         d="M 0,0 H 793.70079 V 1122.5197 H 0 Z"
         id="path1619" />
    </clipPath>
    <clipPath
       clipPathUnits="userSpaceOnUse"
       id="clipPath1625">
      <path
         inkscape:connector-curvature="0"
         d="M 0,0 H 793.70079 V 1122.5197 H 0 Z"
         id="path1623" />
    </clipPath>
    <clipPath
       clipPathUnits="userSpaceOnUse"
       id="clipPath1629">
      <path
         inkscape:connector-curvature="0"
         d="M 0,0 H 793.70079 V 1122.5197 H 0 Z"
         id="path1627" />
    </clipPath>
    <clipPath
       clipPathUnits="userSpaceOnUse"
       id="clipPath1633">
      <path
         inkscape:connector-curvature="0"
         d="M 0,0 H 793.70079 V 1122.5197 H 0 Z"
         id="path1631" />
    </clipPath>
    <clipPath
       clipPathUnits="userSpaceOnUse"
       id="clipPath1637">
      <path
         inkscape:connector-curvature="0"
         d="M 0,0 H 793.70079 V 1122.5197 H 0 Z"
         id="path1635" />
    </clipPath>
    <clipPath
       clipPathUnits="userSpaceOnUse"
       id="clipPath1641">
      <path
         inkscape:connector-curvature="0"
         d="M 0,0 H 793.70079 V 1122.5197 H 0 Z"
         id="path1639" />
    </clipPath>
    <clipPath
       clipPathUnits="userSpaceOnUse"
       id="clipPath1645">
      <path
         inkscape:connector-curvature="0"
         d="M 0,0 H 793.70079 V 1122.5197 H 0 Z"
         id="path1643" />
    </clipPath>
    <clipPath
       clipPathUnits="userSpaceOnUse"
       id="clipPath1649">
      <path
         inkscape:connector-curvature="0"
         d="M 0,0 H 793.70079 V 1122.5197 H 0 Z"
         id="path1647" />
    </clipPath>
    <clipPath
       clipPathUnits="userSpaceOnUse"
       id="clipPath1653">
      <path
         inkscape:connector-curvature="0"
         d="M 0,0 H 793.70079 V 1122.5197 H 0 Z"
         id="path1651" />
    </clipPath>
    <clipPath
       clipPathUnits="userSpaceOnUse"
       id="clipPath1657">
      <path
         inkscape:connector-curvature="0"
         d="M 0,0 H 793.70079 V 1122.5197 H 0 Z"
         id="path1655" />
    </clipPath>
    <clipPath
       clipPathUnits="userSpaceOnUse"
       id="clipPath1661">
      <path
         inkscape:connector-curvature="0"
         d="M 0,0 H 793.70079 V 1122.5197 H 0 Z"
         id="path1659" />
    </clipPath>
    <clipPath
       clipPathUnits="userSpaceOnUse"
       id="clipPath1665">
      <path
         inkscape:connector-curvature="0"
         d="M 0,0 H 793.70079 V 1122.5197 H 0 Z"
         id="path1663" />
    </clipPath>
    <clipPath
       clipPathUnits="userSpaceOnUse"
       id="clipPath1669">
      <path
         inkscape:connector-curvature="0"
         d="M 0,0 H 793.70079 V 1122.5197 H 0 Z"
         id="path1667" />
    </clipPath>
    <clipPath
       clipPathUnits="userSpaceOnUse"
       id="clipPath1673">
      <path
         inkscape:connector-curvature="0"
         d="M 0,0 H 793.70079 V 1122.5197 H 0 Z"
         id="path1671" />
    </clipPath>
    <clipPath
       clipPathUnits="userSpaceOnUse"
       id="clipPath1677">
      <path
         inkscape:connector-curvature="0"
         d="M 0,0 H 793.70079 V 1122.5197 H 0 Z"
         id="path1675" />
    </clipPath>
  </defs>
  <sodipodi:namedview
     id="base"
     pagecolor="#ffffff"
     bordercolor="#666666"
     borderopacity="1.0"
     inkscape:pageopacity="0.0"
     inkscape:pageshadow="2"
     inkscape:zoom="2"
     inkscape:cx="76.61928"
     inkscape:cy="16.973393"
     inkscape:document-units="px"
     inkscape:current-layer="layer1"
     showgrid="false"
     units="px"
     showguides="false"
     inkscape:window-width="1366"
     inkscape:window-height="703"
     inkscape:window-x="0"
     inkscape:window-y="0"
     inkscape:window-maximized="1" />
  <metadata
     id="metadata5677">
    <rdf:RDF>
      <cc:Work
         rdf:about="">
        <dc:format>image/svg+xml</dc:format>
        <dc:type
           rdf:resource="http://purl.org/dc/dcmitype/StillImage" />
        <dc:title></dc:title>
      </cc:Work>
    </rdf:RDF>
  </metadata>
  <g
     inkscape:label="Ebene 1"
     inkscape:groupmode="layer"
     id="layer1">
    <path
       style="fill:none;fill-rule:evenodd;stroke:#999999;stroke-width:1px;stroke-linecap:butt;stroke-linejoin:miter;stroke-opacity:1"
       d="M 140.5,87 V 50"
       id="path112"
       inkscape:connector-curvature="0" />
    <rect
       style="opacity:1;fill:#eeeeee;fill-opacity:1;stroke:none;stroke-width:0.2773501;stroke-opacity:1"
       id="rect6076"
       width="90"
       height="10"
       x="20"
       y="45" />
    <rect
       style="opacity:1;fill:#cccccc;fill-opacity:1;stroke:none;stroke-opacity:1"
       id="rect6124"
       width="80"
       height="10"
       x="140"
       y="45" />
    <text
       xml:space="preserve"
       style="font-style:normal;font-variant:normal;font-weight:normal;font-stretch:normal;font-size:17.33333397px;line-height:125%;font-family:calibri;-inkscape-font-specification:calibri;letter-spacing:0px;word-spacing:0px;fill:#000000;fill-opacity:1;stroke:none;stroke-width:1px;stroke-linecap:butt;stroke-linejoin:miter;stroke-opacity:1"
       x="82.747719"
       y="18.077475"
       id="text6195"><tspan
         sodipodi:role="line"
         id="tspan6193"
         x="82.747719"
         y="18.077475">1</tspan></text>
    <rect
       style="opacity:0.8;fill:none;fill-opacity:1;stroke:#999999;stroke-opacity:1"
       id="rect6205"
       width="25"
       height="25"
       x="75"
       y="0" />
    <text
       xml:space="preserve"
       style="font-style:normal;font-variant:normal;font-weight:normal;font-stretch:normal;font-size:17.33333397px;line-height:125%;font-family:calibri;-inkscape-font-specification:calibri;letter-spacing:0px;word-spacing:0px;fill:#000000;fill-opacity:1;stroke:none;stroke-width:1px;stroke-linecap:butt;stroke-linejoin:miter;stroke-opacity:1"
       x="158.08626"
       y="93.124023"
       id="text6199"><tspan
         sodipodi:role="line"
         id="tspan6197"
         x="158.08626"
         y="93.124023">2</tspan></text>
    <rect
       style="opacity:0.8;fill:none;fill-opacity:1;stroke:#999999;stroke-opacity:1"
       id="rect6209"
       width="25"
       height="25"
       x="150"
       y="75" />
    <path
       style="fill:none;fill-rule:evenodd;stroke:#999999;stroke-width:1px;stroke-linecap:butt;stroke-linejoin:miter;stroke-opacity:1"
       d="M 5,50 H 250"
       id="path6239"
       inkscape:connector-curvature="0" />
    <path
       style="fill:none;fill-rule:evenodd;stroke:#999999;stroke-width:1px;stroke-linecap:butt;stroke-linejoin:miter;stroke-opacity:1"
       d="M 109.5,15 V 45"
       id="path114"
       inkscape:connector-curvature="0" />
    <path
       style="fill:#999999;fill-rule:evenodd;stroke:none;stroke-width:1px;stroke-linecap:butt;stroke-linejoin:miter;stroke-opacity:1"
       d="m 240,47 v 6 l 15,-3 z"
       id="path192"
       inkscape:connector-curvature="0" />
    <circle
       style="opacity:1;fill:#999999;fill-opacity:1;stroke:none;stroke-opacity:1"
       id="path198"
       cx="10"
       cy="50"
       r="1" />
    <circle
       style="opacity:1;fill:#999999;fill-opacity:1;stroke:none;stroke-opacity:1"
       id="path198-3"
       cx="20"
       cy="50"
       r="1" />
    <circle
       style="opacity:1;fill:#999999;fill-opacity:1;stroke:none;stroke-opacity:1"
       id="path198-3-6"
       cx="30"
       cy="50"
       r="1" />
    <circle
       style="opacity:1;fill:#999999;fill-opacity:1;stroke:none;stroke-opacity:1"
       id="path198-3-7"
       cx="40"
       cy="50"
       r="1" />
    <circle
       style="opacity:1;fill:#999999;fill-opacity:1;stroke:none;stroke-opacity:1"
       id="path198-3-5"
       cx="50"
       cy="50"
       r="1" />
    <circle
       style="opacity:1;fill:#999999;fill-opacity:1;stroke:none;stroke-opacity:1"
       id="path198-3-3"
       cx="60"
       cy="50"
       r="1" />
    <circle
       style="opacity:1;fill:#999999;fill-opacity:1;stroke:none;stroke-opacity:1"
       id="path198-3-56"
       cx="70"
       cy="50"
       r="1" />
    <circle
       style="opacity:1;fill:#999999;fill-opacity:1;stroke:none;stroke-opacity:1"
       id="path198-3-2"
       cx="80"
       cy="50"
       r="1" />
    <circle
       style="opacity:1;fill:#999999;fill-opacity:1;stroke:none;stroke-opacity:1"
       id="path198-3-9"
       cx="90"
       cy="50"
       r="1" />
    <circle
       style="opacity:1;fill:#999999;fill-opacity:1;stroke:none;stroke-opacity:1"
       id="path198-3-1"
       cx="100"
       cy="50"
       r="1" />
    <circle
       style="opacity:1;fill:#999999;fill-opacity:1;stroke:none;stroke-opacity:1"
       id="path198-3-27"
       cx="120"
       cy="50"
       r="1" />
    <circle
       style="opacity:1;fill:#999999;fill-opacity:1;stroke:none;stroke-opacity:1"
       id="path198-3-0"
       cx="110"
       cy="50"
       r="1" />
    <circle
       style="opacity:1;fill:#999999;fill-opacity:1;stroke:none;stroke-opacity:1"
       id="path198-3-93"
       cx="130"
       cy="50"
       r="1" />
    <circle
       style="opacity:1;fill:#999999;fill-opacity:1;stroke:none;stroke-opacity:1"
       id="path198-3-60"
       cx="140"
       cy="50"
       r="1" />
    <circle
       style="opacity:1;fill:#999999;fill-opacity:1;stroke:none;stroke-opacity:1"
       id="path198-3-62"
       cx="150"
       cy="50"
       r="1" />
    <circle
       style="opacity:1;fill:#999999;fill-opacity:1;stroke:none;stroke-opacity:1"
       id="path198-3-61"
       cx="160"
       cy="50"
       r="1" />
    <circle
       style="opacity:1;fill:#999999;fill-opacity:1;stroke:none;stroke-opacity:1"
       id="path198-3-8"
       cx="170"
       cy="50"
       r="1" />
    <circle
       style="opacity:1;fill:#999999;fill-opacity:1;stroke:none;stroke-opacity:1"
       id="path198-3-79"
       cx="180"
       cy="50"
       r="1" />
    <circle
       style="opacity:1;fill:#999999;fill-opacity:1;stroke:none;stroke-opacity:1"
       id="path198-3-20"
       cx="190"
       cy="50"
       r="1" />
    <circle
       style="opacity:1;fill:#999999;fill-opacity:1;stroke:none;stroke-opacity:1"
       id="path198-3-23"
       cx="190"
       cy="50"
       r="1" />
    <circle
       style="opacity:1;fill:#999999;fill-opacity:1;stroke:none;stroke-opacity:1"
       id="path198-3-75"
       cx="200"
       cy="50"
       r="1" />
    <circle
       style="opacity:1;fill:#999999;fill-opacity:1;stroke:none;stroke-opacity:1"
       id="path198-3-92"
       cx="210"
       cy="50"
       r="1" />
    <circle
       style="opacity:1;fill:#999999;fill-opacity:1;stroke:none;stroke-opacity:1"
       id="path198-3-28"
       cx="220"
       cy="50"
       r="1" />
    <circle
       style="opacity:1;fill:#999999;fill-opacity:1;stroke:none;stroke-opacity:1"
       id="path198-3-97"
       cx="230"
       cy="50"
       r="1" />
  </g>
</svg>
