<?xml version="1.0" encoding="UTF-8" standalone="no"?>
<svg
   xmlns:dc="http://purl.org/dc/elements/1.1/"
   xmlns:cc="http://creativecommons.org/ns#"
   xmlns:rdf="http://www.w3.org/1999/02/22-rdf-syntax-ns#"
   xmlns:svg="http://www.w3.org/2000/svg"
   xmlns="http://www.w3.org/2000/svg"
   id="svg5680"
   version="1.1"
   viewBox="0 0 244.76253 227.81307"
   height="227.81306"
   width="244.76253">
  <defs
     id="defs5674">
    <clipPath
       id="clipWmfPath1"
       clipPathUnits="userSpaceOnUse">
      <path
         id="path1347"
         d="M 0,0 H 793.70079 V 1122.5197 H 0 Z" />
    </clipPath>
    <clipPath
       id="clipPath1553"
       clipPathUnits="userSpaceOnUse">
      <path
         id="path1551"
         d="M 0,0 H 793.70079 V 1122.5197 H 0 Z" />
    </clipPath>
    <clipPath
       id="clipPath1557"
       clipPathUnits="userSpaceOnUse">
      <path
         id="path1555"
         d="M 0,0 H 793.70079 V 1122.5197 H 0 Z" />
    </clipPath>
    <clipPath
       id="clipPath1561"
       clipPathUnits="userSpaceOnUse">
      <path
         id="path1559"
         d="M 0,0 H 793.70079 V 1122.5197 H 0 Z" />
    </clipPath>
    <clipPath
       id="clipPath1565"
       clipPathUnits="userSpaceOnUse">
      <path
         id="path1563"
         d="M 0,0 H 793.70079 V 1122.5197 H 0 Z" />
    </clipPath>
    <clipPath
       id="clipPath1569"
       clipPathUnits="userSpaceOnUse">
      <path
         id="path1567"
         d="M 0,0 H 793.70079 V 1122.5197 H 0 Z" />
    </clipPath>
    <clipPath
       id="clipPath1573"
       clipPathUnits="userSpaceOnUse">
      <path
         id="path1571"
         d="M 0,0 H 793.70079 V 1122.5197 H 0 Z" />
    </clipPath>
    <clipPath
       id="clipPath1577"
       clipPathUnits="userSpaceOnUse">
      <path
         id="path1575"
         d="M 0,0 H 793.70079 V 1122.5197 H 0 Z" />
    </clipPath>
    <clipPath
       id="clipPath1581"
       clipPathUnits="userSpaceOnUse">
      <path
         id="path1579"
         d="M 0,0 H 793.70079 V 1122.5197 H 0 Z" />
    </clipPath>
    <clipPath
       id="clipPath1585"
       clipPathUnits="userSpaceOnUse">
      <path
         id="path1583"
         d="M 0,0 H 793.70079 V 1122.5197 H 0 Z" />
    </clipPath>
    <clipPath
       id="clipPath1589"
       clipPathUnits="userSpaceOnUse">
      <path
         id="path1587"
         d="M 0,0 H 793.70079 V 1122.5197 H 0 Z" />
    </clipPath>
    <clipPath
       id="clipPath1593"
       clipPathUnits="userSpaceOnUse">
      <path
         id="path1591"
         d="M 0,0 H 793.70079 V 1122.5197 H 0 Z" />
    </clipPath>
    <clipPath
       id="clipPath1597"
       clipPathUnits="userSpaceOnUse">
      <path
         id="path1595"
         d="M 0,0 H 793.70079 V 1122.5197 H 0 Z" />
    </clipPath>
    <clipPath
       id="clipPath1601"
       clipPathUnits="userSpaceOnUse">
      <path
         id="path1599"
         d="M 0,0 H 793.70079 V 1122.5197 H 0 Z" />
    </clipPath>
    <clipPath
       id="clipPath1605"
       clipPathUnits="userSpaceOnUse">
      <path
         id="path1603"
         d="M 0,0 H 793.70079 V 1122.5197 H 0 Z" />
    </clipPath>
    <clipPath
       id="clipPath1609"
       clipPathUnits="userSpaceOnUse">
      <path
         id="path1607"
         d="M 0,0 H 793.70079 V 1122.5197 H 0 Z" />
    </clipPath>
    <clipPath
       id="clipPath1613"
       clipPathUnits="userSpaceOnUse">
      <path
         id="path1611"
         d="M 0,0 H 793.70079 V 1122.5197 H 0 Z" />
    </clipPath>
    <clipPath
       id="clipPath1617"
       clipPathUnits="userSpaceOnUse">
      <path
         id="path1615"
         d="M 0,0 H 793.70079 V 1122.5197 H 0 Z" />
    </clipPath>
    <clipPath
       id="clipPath1621"
       clipPathUnits="userSpaceOnUse">
      <path
         id="path1619"
         d="M 0,0 H 793.70079 V 1122.5197 H 0 Z" />
    </clipPath>
    <clipPath
       id="clipPath1625"
       clipPathUnits="userSpaceOnUse">
      <path
         id="path1623"
         d="M 0,0 H 793.70079 V 1122.5197 H 0 Z" />
    </clipPath>
    <clipPath
       id="clipPath1629"
       clipPathUnits="userSpaceOnUse">
      <path
         id="path1627"
         d="M 0,0 H 793.70079 V 1122.5197 H 0 Z" />
    </clipPath>
    <clipPath
       id="clipPath1633"
       clipPathUnits="userSpaceOnUse">
      <path
         id="path1631"
         d="M 0,0 H 793.70079 V 1122.5197 H 0 Z" />
    </clipPath>
    <clipPath
       id="clipPath1637"
       clipPathUnits="userSpaceOnUse">
      <path
         id="path1635"
         d="M 0,0 H 793.70079 V 1122.5197 H 0 Z" />
    </clipPath>
    <clipPath
       id="clipPath1641"
       clipPathUnits="userSpaceOnUse">
      <path
         id="path1639"
         d="M 0,0 H 793.70079 V 1122.5197 H 0 Z" />
    </clipPath>
    <clipPath
       id="clipPath1645"
       clipPathUnits="userSpaceOnUse">
      <path
         id="path1643"
         d="M 0,0 H 793.70079 V 1122.5197 H 0 Z" />
    </clipPath>
    <clipPath
       id="clipPath1649"
       clipPathUnits="userSpaceOnUse">
      <path
         id="path1647"
         d="M 0,0 H 793.70079 V 1122.5197 H 0 Z" />
    </clipPath>
    <clipPath
       id="clipPath1653"
       clipPathUnits="userSpaceOnUse">
      <path
         id="path1651"
         d="M 0,0 H 793.70079 V 1122.5197 H 0 Z" />
    </clipPath>
    <clipPath
       id="clipPath1657"
       clipPathUnits="userSpaceOnUse">
      <path
         id="path1655"
         d="M 0,0 H 793.70079 V 1122.5197 H 0 Z" />
    </clipPath>
    <clipPath
       id="clipPath1661"
       clipPathUnits="userSpaceOnUse">
      <path
         id="path1659"
         d="M 0,0 H 793.70079 V 1122.5197 H 0 Z" />
    </clipPath>
    <clipPath
       id="clipPath1665"
       clipPathUnits="userSpaceOnUse">
      <path
         id="path1663"
         d="M 0,0 H 793.70079 V 1122.5197 H 0 Z" />
    </clipPath>
    <clipPath
       id="clipPath1669"
       clipPathUnits="userSpaceOnUse">
      <path
         id="path1667"
         d="M 0,0 H 793.70079 V 1122.5197 H 0 Z" />
    </clipPath>
    <clipPath
       id="clipPath1673"
       clipPathUnits="userSpaceOnUse">
      <path
         id="path1671"
         d="M 0,0 H 793.70079 V 1122.5197 H 0 Z" />
    </clipPath>
    <clipPath
       id="clipPath1677"
       clipPathUnits="userSpaceOnUse">
      <path
         id="path1675"
         d="M 0,0 H 793.70079 V 1122.5197 H 0 Z" />
    </clipPath>
  </defs>
  <metadata
     id="metadata5677">
    <rdf:RDF>
      <cc:Work
         rdf:about="">
        <dc:format>image/svg+xml</dc:format>
        <dc:type
           rdf:resource="http://purl.org/dc/dcmitype/StillImage" />
        <dc:title></dc:title>
      </cc:Work>
    </rdf:RDF>
  </metadata>
  <g
     transform="translate(-0.75737096,-65.186935)"
     id="layer1">
    <path
       id="path8272"
       d="m 155.5,236.5 -6.88909,18.80025 -18.02512,0.0858 -22.87868,-2.94975 -30.979187,-2.48959 -29.732233,2.77386 -15.2791,-8.37564 -12.984356,-2.8609 L 9.9880914,231.35899 1.75736,213.71016 4.0161627,184.90782 6.500001,170.75 l 22.5,-4.50001 27.5,-0.5 L 80.5,170 84.356987,187.83858 101.42021,211.01769 134.75,232.25 Z"
       style="opacity:1;fill:#eeeeee;fill-opacity:1;stroke:#999999;stroke-width:2;stroke-linecap:square;stroke-linejoin:round;stroke-miterlimit:4;stroke-dasharray:none;stroke-opacity:1" />
    <path
       id="path8251"
       d="M 155.5,236.5 134.75,232.25 101.42021,211.01768 84.356987,187.83858 80.5,170 l 32.31634,-11.54083 11.11747,-9.11851 15.51341,-4.3183 19.74338,-6.04999 27.06238,25.6435 9.06684,19.14925 -0.59297,23.59543 4.17711,14.17257 z"
       style="opacity:1;fill:#cccccc;fill-opacity:1;stroke:#999999;stroke-width:2;stroke-linecap:square;stroke-linejoin:round;stroke-miterlimit:4;stroke-dasharray:none;stroke-opacity:1" />
    <text
       id="text6195"
       y="136.57747"
       x="53.747723"
       style="font-style:normal;font-variant:normal;font-weight:normal;font-stretch:normal;font-size:17.33333397px;line-height:125%;font-family:calibri;-inkscape-font-specification:calibri;letter-spacing:0px;word-spacing:0px;fill:#000000;fill-opacity:1;stroke:none;stroke-width:1px;stroke-linecap:butt;stroke-linejoin:miter;stroke-opacity:1"
       xml:space="preserve"><tspan
         y="136.57747"
         x="53.747723"
         id="tspan6193">2</tspan></text>
    <rect
       y="118.5"
       x="46.000004"
       height="25"
       width="25"
       id="rect6205"
       style="opacity:0.8;fill:none;fill-opacity:1;stroke:#999999;stroke-opacity:1" />
    <path
       id="path114"
       d="m 80.5,133.5 v 30"
       style="fill:none;fill-rule:evenodd;stroke:#999999;stroke-width:1px;stroke-linecap:butt;stroke-linejoin:miter;stroke-opacity:1" />
    <g
       id="g281">
      <path
         style="opacity:1;fill:#000000;fill-opacity:1;stroke:#000000;stroke-width:2;stroke-linecap:square;stroke-linejoin:round;stroke-miterlimit:4;stroke-dasharray:none;stroke-opacity:1"
         d="m 148,229 v 2.27148 L 150.27148,229 Z m 12.72852,0 L 163,231.27148 V 229 Z M 148,241.72852 V 244 h 2.27148 z m 15,0 L 160.72852,244 H 163 Z"
         id="rect275" />
    </g>
    <g
       id="g281-3"
       transform="translate(-75,-66.5)">
      <path
         style="opacity:1;fill:#000000;fill-opacity:1;stroke:#000000;stroke-width:2;stroke-linecap:square;stroke-linejoin:round;stroke-miterlimit:4;stroke-dasharray:none;stroke-opacity:1"
         d="m 148,229 v 2.27148 L 150.27148,229 Z m 12.72852,0 L 163,231.27148 V 229 Z M 148,241.72852 V 244 h 2.27148 z m 15,0 L 160.72852,244 H 163 Z"
         id="rect275-6" />
    </g>
    <path
       id="path359"
       d="m 211.75,247.25 -0.98222,-0.18771 -0.98223,-0.18772 -0.98222,-0.18771 -0.98223,-0.18772 -0.98222,-0.18771 -0.98222,-0.18771 -0.98223,-0.18772 -0.98222,-0.18771 -0.98222,-0.18771 -0.98223,-0.18772 -0.98222,-0.18771 -0.98223,-0.18772 -0.98222,-0.18771 -0.98222,-0.18771 -0.98223,-0.18772 -0.98222,-0.18771 -0.98222,-0.18772 -0.98223,-0.18771 -0.98222,-0.18771 -0.98223,-0.18772 -0.98222,-0.18771 -0.98222,-0.18772 -0.98223,-0.18771 -0.98222,-0.18771 -0.98222,-0.18772 -0.98223,-0.18771 -0.98222,-0.18771 -0.98223,-0.18772 -0.98222,-0.18771 -0.98222,-0.18772 -0.98223,-0.18771 -0.98222,-0.18771 -0.98222,-0.18772 -0.98223,-0.18771 -0.98222,-0.18772 -0.98223,-0.18771 -0.98222,-0.18771 -0.98222,-0.18772 -0.98223,-0.18771 -0.98222,-0.18771 -0.98222,-0.18772 -0.98223,-0.18771 -0.98222,-0.18772 -0.98223,-0.18771 -0.98222,-0.18771 -0.98222,-0.18772 -0.98223,-0.18771 -0.98222,-0.18772 -0.98222,-0.18771 -0.98223,-0.18771 -0.98222,-0.18772 -0.98223,-0.18771 -0.98222,-0.18772 -0.98222,-0.18771 -0.98223,-0.18771 -0.98222,-0.18772 -0.98222,-0.18771 L 155.5,236.5 l -0.7171,-0.14688 -0.97966,-0.20065 -0.97967,-0.20065 -0.97966,-0.20066 -0.97966,-0.20065 -0.97966,-0.20066 -0.97967,-0.20065 -0.97966,-0.20065 -0.97966,-0.20066 -0.97966,-0.20065 -0.97967,-0.20065 -0.97966,-0.20066 -0.97966,-0.20065 -0.97966,-0.20065 -0.97966,-0.20066 -0.97967,-0.20065 -0.97966,-0.20066 -0.97966,-0.20065 -0.97966,-0.20065 -0.97967,-0.20066 -0.97966,-0.20065 -0.43965,-0.09 -0.4649,-0.29616 -0.84341,-0.53728 -0.8434,-0.53728 -0.8434,-0.53728 -0.84341,-0.53728 -0.8434,-0.53728 -0.84341,-0.53728 -0.8434,-0.53728 -0.8434,-0.53728 -0.84341,-0.53728 -0.8434,-0.53728 -0.84341,-0.53728 -0.8434,-0.53728 -0.84341,-0.53728 -0.8434,-0.53727 -0.8434,-0.53728 -0.84341,-0.53728 -0.8434,-0.53728 -0.84341,-0.53728 -0.8434,-0.53728 -0.8434,-0.53728 -0.84341,-0.53728 -0.8434,-0.53728 -0.84341,-0.53728 -0.8434,-0.53728 -0.8434,-0.53728 -0.84341,-0.53728 -0.8434,-0.53728 -0.84341,-0.53728 -0.8434,-0.53728 -0.84341,-0.53728 -0.8434,-0.53728 -0.8434,-0.53728 -0.84341,-0.53728 -0.8434,-0.53728 -0.84341,-0.53728 -0.8434,-0.53728 -0.8434,-0.53728 -0.84341,-0.53728 -0.8434,-0.53728 L 101,210.75 l -0.31857,-0.42959 -0.59566,-0.80323 -0.595657,-0.80324 -0.595659,-0.80324 -0.595659,-0.80323 -0.595659,-0.80324 -0.59566,-0.80324 -0.595659,-0.80324 -0.595659,-0.80323 -0.595659,-0.80324 -0.595659,-0.80324 -0.595659,-0.80324 -0.595659,-0.80323 -0.59566,-0.80324 -0.595659,-0.80324 -0.595659,-0.80323 -0.595659,-0.80324 -0.595659,-0.80324 -0.595659,-0.80324 -0.595659,-0.80323 -0.59566,-0.80324 -0.595659,-0.80324 -0.595659,-0.80324 -0.595659,-0.80323 -0.595659,-0.80324 -0.595659,-0.80324 -0.595659,-0.80324 -0.595659,-0.80323 L 84.5,188.5 l -0.176338,-0.81557 -0.211333,-0.97741 -0.211333,-0.97741 -0.211333,-0.97742 -0.211333,-0.97741 -0.211332,-0.97742 -0.211333,-0.97741 -0.211333,-0.97741 -0.211333,-0.97742 -0.211333,-0.97741 -0.211332,-0.97742 -0.211333,-0.97741 -0.211333,-0.97742 -0.211333,-0.97741 -0.211333,-0.97741 -0.211332,-0.97742 -0.211333,-0.97741 -0.211333,-0.97742 -0.211333,-0.97741 L 80.5,170 l 0.299957,-0.85588 0.330743,-0.94372 0.330744,-0.94372 0.330743,-0.94372 0.330743,-0.94372 0.330743,-0.94372 0.330744,-0.94372 0.330743,-0.94372 0.330743,-0.94372 0.330743,-0.94372 0.330744,-0.94372 0.330743,-0.94373 0.330743,-0.94372 0.330743,-0.94372 0.330744,-0.94372 0.330743,-0.94372 0.330743,-0.94372 0.330743,-0.94372 0.330744,-0.94372 0.330743,-0.94372 0.330743,-0.94372 0.330743,-0.94372 0.330744,-0.94372 0.330743,-0.94373 0.330743,-0.94372 0.330744,-0.94372 0.330743,-0.94372 0.330743,-0.94372 0.330743,-0.94372 0.330744,-0.94372 0.330743,-0.94372 0.330743,-0.94372 0.330743,-0.94372 0.330744,-0.94372 0.330743,-0.94372 0.330743,-0.94372 0.330743,-0.94373 0.330744,-0.94372 0.330743,-0.94372 0.330743,-0.94372 0.330743,-0.94372 0.330744,-0.94372 0.330743,-0.94372 0.330743,-0.94372 0.330743,-0.94372 0.330744,-0.94372 0.330743,-0.94372 0.330743,-0.94372 0.330744,-0.94372 0.330743,-0.94373 0.330743,-0.94372 0.330743,-0.94372 0.330744,-0.94372 0.330743,-0.94372 0.330743,-0.94372 0.330743,-0.94372 L 99.25,116.5 l 0.214116,0.0315 0.989354,0.14554 0.98935,0.14554 0.98935,0.14554 0.98936,0.14554 0.98935,0.14554 0.98935,0.14554 0.98935,0.14554 0.98935,0.14554 0.98936,0.14555 0.98935,0.14554 0.98935,0.14554 0.98935,0.14554 0.98936,0.14554 0.98935,0.14554 0.98935,0.14554 0.98935,0.14554 0.98935,0.14554 0.98936,0.14554 0.98935,0.14554 0.98935,0.14555 0.98935,0.14554 0.98936,0.14554 0.98935,0.14554 0.98935,0.14554 0.98935,0.14554 0.98935,0.14554 0.98936,0.14554 0.98935,0.14554 0.98935,0.14554 0.98935,0.14554 0.98936,0.14554 0.98935,0.14555 0.98935,0.14554 0.98935,0.14554 0.98935,0.14554 0.98936,0.14554 0.98935,0.14554 0.98935,0.14554 0.98935,0.14554 0.98936,0.14554 0.98935,0.14554 0.98935,0.14554 0.98935,0.14555 0.98935,0.14554 0.98936,0.14554 0.98935,0.14554 0.98935,0.14554 0.98935,0.14554 0.98936,0.14554 0.98935,0.14554 0.98935,0.14554 0.98935,0.14554 0.98935,0.14554 0.98936,0.14554 0.98935,0.14555 0.98935,0.14554 0.98935,0.14554 0.98936,0.14554 0.98935,0.14554 0.98935,0.14554 0.98935,0.14554 0.98936,0.14554 0.98935,0.14554 0.98935,0.14554 0.98935,0.14554 0.98935,0.14555 0.98936,0.14554 0.98935,0.14554 0.98935,0.14554 0.98935,0.14554 0.98936,0.14554 0.98935,0.14554 0.98935,0.14554 0.98935,0.14554 0.98935,0.14554 0.98936,0.14554 0.98935,0.14554 0.98935,0.14555 0.98935,0.14554 0.98936,0.14554 0.98935,0.14554 0.98935,0.14554 0.98935,0.14554 0.98935,0.14554 0.98936,0.14554 0.69866,0.10278 0.22737,0.1861 0.77385,0.63337 0.77385,0.63337 0.77384,0.63337 0.77385,0.63337 0.77385,0.63337 0.77385,0.63337 0.77385,0.63337 0.77385,0.63337 0.77384,0.63337 0.77385,0.63338 0.77385,0.63337 0.77385,0.63337 0.77385,0.63337 0.77385,0.63337 0.77384,0.63337 0.77385,0.63337 0.77385,0.63337 0.77385,0.63337 0.77385,0.63338 0.77385,0.63337 0.77384,0.63337 0.77385,0.63337 0.77385,0.63337 0.77385,0.63337 0.77385,0.63337 0.77384,0.63337 0.77385,0.63337 0.77385,0.63337 0.77385,0.63338 0.77385,0.63337 0.77385,0.63337 0.77384,0.63337 0.77385,0.63337 0.77385,0.63337 0.77385,0.63337 0.77385,0.63337 0.77385,0.63337 0.77384,0.63338 0.77385,0.63337 0.77385,0.63337 0.77385,0.63337 0.77385,0.63337 0.77384,0.63337 0.77385,0.63337 0.77385,0.63337 0.77385,0.63337 0.77385,0.63337 0.77385,0.63338 0.77384,0.63337 0.77385,0.63337 0.77385,0.63337 0.77385,0.63337 0.77385,0.63337 0.77385,0.63337 0.77384,0.63337 0.77385,0.63337 0.77385,0.63337 0.77385,0.63338 0.77385,0.63337 0.77385,0.63337 0.77384,0.63337 0.77385,0.63337 0.77385,0.63337 0.77385,0.63337 0.77385,0.63337 0.77384,0.63337 0.77385,0.63338 0.77385,0.63337 0.77385,0.63337 0.77385,0.63337 0.77385,0.63337 0.77384,0.63337 0.77385,0.63337 0.725,0.59339 -0.0245,0.0582 -0.38761,0.92182 -0.38762,0.92182 -0.38761,0.92183 -0.38762,0.92182 -0.38761,0.92182 -0.38762,0.92182 -0.38761,0.92182 -0.38762,0.92182 -0.38761,0.92182 -0.38762,0.92183 -0.38761,0.92182 -0.38762,0.92182 -0.38761,0.92182 -0.38762,0.92182 -0.38761,0.92182 -0.38762,0.92182 -0.38761,0.92183 -0.38762,0.92182 -0.38761,0.92182 -0.38761,0.92182 -0.38762,0.92182 -0.38761,0.92182 -0.38762,0.92183 -0.38761,0.92182 -0.38762,0.92182 -0.38761,0.92182 -0.38762,0.92182 -0.38761,0.92182 -0.38762,0.92182 -0.38761,0.92183 -0.38762,0.92182 -0.38761,0.92182 -0.38762,0.92182 -0.38761,0.92182 -0.38762,0.92182 -0.38761,0.92182 -0.38762,0.92183 -0.38761,0.92182 -0.38762,0.92182 -0.38761,0.92182 -0.38762,0.92182 -0.38761,0.92182 -0.38761,0.92182 -0.38762,0.92183 -0.38761,0.92182 -0.38762,0.92182 -0.38761,0.92182 -0.38762,0.92182 -0.38761,0.92182 -0.38762,0.92182 -0.38761,0.92183 -0.38762,0.92182 -0.38761,0.92182 -0.38762,0.92182 -0.38761,0.92182 -0.38762,0.92182 -0.38761,0.92182 -0.38762,0.92183 -0.38761,0.92182 -0.38762,0.92182 -0.38761,0.92182 -0.38762,0.92182 -0.38761,0.92182 -0.38762,0.92182 -0.38761,0.92183 -0.38761,0.92182 -0.38762,0.92182 -0.38761,0.92182 -0.38762,0.92182 -0.38761,0.92182 -0.38762,0.92182 -0.38761,0.92183 -0.38762,0.92182 -0.38761,0.92182 -0.38762,0.92182 -0.38761,0.92182 -0.38762,0.92182"
       style="opacity:1;fill:none;fill-opacity:1;stroke:#000000;stroke-width:2;stroke-linecap:square;stroke-linejoin:round;stroke-miterlimit:4;stroke-dasharray:none;stroke-opacity:1" />
    <circle
       r="3"
       cy="247.25"
       cx="211.75"
       id="path8075"
       style="opacity:1;fill:#000000;fill-opacity:1;stroke:#000000;stroke-width:2;stroke-linecap:square;stroke-linejoin:round;stroke-miterlimit:4;stroke-dasharray:none;stroke-opacity:1" />
    <circle
       r="3"
       cy="236.5"
       cx="155.5"
       id="path8075-5"
       style="opacity:1;fill:#000000;fill-opacity:1;stroke:#000000;stroke-width:2;stroke-linecap:square;stroke-linejoin:round;stroke-miterlimit:4;stroke-dasharray:none;stroke-opacity:1" />
    <circle
       r="3"
       cy="232.25"
       cx="134.75"
       id="path8075-6"
       style="opacity:1;fill:#000000;fill-opacity:1;stroke:#000000;stroke-width:2;stroke-linecap:square;stroke-linejoin:round;stroke-miterlimit:4;stroke-dasharray:none;stroke-opacity:1" />
    <circle
       r="3"
       cy="211.01768"
       cx="101.42021"
       id="path8075-2"
       style="opacity:1;fill:#000000;fill-opacity:1;stroke:#000000;stroke-width:2;stroke-linecap:square;stroke-linejoin:round;stroke-miterlimit:4;stroke-dasharray:none;stroke-opacity:1" />
    <circle
       r="3"
       cy="187.83858"
       cx="84.356987"
       id="path8075-9"
       style="opacity:1;fill:#000000;fill-opacity:1;stroke:#000000;stroke-width:2;stroke-linecap:square;stroke-linejoin:round;stroke-miterlimit:4;stroke-dasharray:none;stroke-opacity:1" />
    <circle
       r="3"
       cy="170"
       cx="80.5"
       id="path8075-1"
       style="opacity:1;fill:#000000;fill-opacity:1;stroke:#000000;stroke-width:2;stroke-linecap:square;stroke-linejoin:round;stroke-miterlimit:4;stroke-dasharray:none;stroke-opacity:1" />
    <circle
       r="3"
       cy="116.68695"
       cx="99.888588"
       id="path8075-27"
       style="opacity:1;fill:#000000;fill-opacity:1;stroke:#000000;stroke-width:2;stroke-linecap:square;stroke-linejoin:round;stroke-miterlimit:4;stroke-dasharray:none;stroke-opacity:1" />
    <circle
       r="3"
       cy="176.45149"
       cx="241.5199"
       id="path8075-0"
       style="opacity:1;fill:#000000;fill-opacity:1;stroke:#000000;stroke-width:2;stroke-linecap:square;stroke-linejoin:round;stroke-miterlimit:4;stroke-dasharray:none;stroke-opacity:1" />
    <path
       id="path112-9"
       d="m 155.5,279.5 v -37"
       style="fill:none;fill-rule:evenodd;stroke:#999999;stroke-width:1px;stroke-linecap:butt;stroke-linejoin:miter;stroke-opacity:1" />
    <text
       id="text6199-3"
       y="285.62402"
       x="173.08626"
       style="font-style:normal;font-variant:normal;font-weight:normal;font-stretch:normal;font-size:17.33333397px;line-height:125%;font-family:calibri;-inkscape-font-specification:calibri;letter-spacing:0px;word-spacing:0px;fill:#000000;fill-opacity:1;stroke:none;stroke-width:1px;stroke-linecap:butt;stroke-linejoin:miter;stroke-opacity:1"
       xml:space="preserve"><tspan
         y="285.62402"
         x="173.08626"
         id="tspan6197-6">4</tspan></text>
    <rect
       y="267.5"
       x="165.00002"
       height="25"
       width="25"
       id="rect6209-0"
       style="opacity:0.8;fill:none;fill-opacity:1;stroke:#999999;stroke-opacity:1" />
    <circle
       r="3"
       cy="128.89603"
       cx="183.51529"
       id="path8075-0-6"
       style="opacity:1;fill:#000000;fill-opacity:1;stroke:#000000;stroke-width:2;stroke-linecap:square;stroke-linejoin:round;stroke-miterlimit:4;stroke-dasharray:none;stroke-opacity:1" />
    <path
       id="path112-8"
       d="m 93.49998,274.55557 v -70"
       style="fill:none;fill-rule:evenodd;stroke:#999999;stroke-width:1px;stroke-linecap:butt;stroke-linejoin:miter;stroke-opacity:1" />
    <text
       id="text6199-7"
       y="280.67957"
       x="111.08624"
       style="font-style:normal;font-variant:normal;font-weight:normal;font-stretch:normal;font-size:17.33333397px;line-height:125%;font-family:calibri;-inkscape-font-specification:calibri;letter-spacing:0px;word-spacing:0px;fill:#000000;fill-opacity:1;stroke:none;stroke-width:1px;stroke-linecap:butt;stroke-linejoin:miter;stroke-opacity:1"
       xml:space="preserve"><tspan
         y="280.67957"
         x="111.08624"
         id="tspan6197-9">3</tspan></text>
    <rect
       y="262.55554"
       x="103"
       height="25"
       width="25"
       id="rect6209-2"
       style="opacity:0.8;fill:none;fill-opacity:1;stroke:#999999;stroke-opacity:1" />
    <text
       id="text6195-0"
       y="115.63255"
       x="203.98047"
       style="font-style:normal;font-variant:normal;font-weight:normal;font-stretch:normal;font-size:17.33333397px;line-height:125%;font-family:calibri;-inkscape-font-specification:calibri;letter-spacing:0px;word-spacing:0px;fill:#000000;fill-opacity:1;stroke:none;stroke-width:1px;stroke-linecap:butt;stroke-linejoin:miter;stroke-opacity:1"
       xml:space="preserve"><tspan
         y="115.63255"
         x="203.98047"
         id="tspan6193-2">5</tspan></text>
    <rect
       y="97.555077"
       x="196.23276"
       height="25"
       width="25"
       id="rect6205-3"
       style="opacity:0.8;fill:none;fill-opacity:1;stroke:#999999;stroke-opacity:1" />
    <path
       id="path114-7"
       d="m 230.73275,112.55509 v 50"
       style="fill:none;fill-rule:evenodd;stroke:#999999;stroke-width:1px;stroke-linecap:butt;stroke-linejoin:miter;stroke-opacity:1" />
    <text
       id="text6195-5"
       y="83.764427"
       x="73.136307"
       style="font-style:normal;font-variant:normal;font-weight:normal;font-stretch:normal;font-size:17.33333397px;line-height:125%;font-family:calibri;-inkscape-font-specification:calibri;letter-spacing:0px;word-spacing:0px;fill:#000000;fill-opacity:1;stroke:none;stroke-width:1px;stroke-linecap:butt;stroke-linejoin:miter;stroke-opacity:1"
       xml:space="preserve"><tspan
         y="83.764427"
         x="73.136307"
         id="tspan6193-9">1</tspan></text>
    <rect
       y="65.686935"
       x="65.388588"
       height="25"
       width="25"
       id="rect6205-2"
       style="opacity:0.8;fill:none;fill-opacity:1;stroke:#999999;stroke-opacity:1" />
    <path
       id="path114-2"
       d="M 99.888588,80.686951 V 110.68695"
       style="fill:none;fill-rule:evenodd;stroke:#999999;stroke-width:1px;stroke-linecap:butt;stroke-linejoin:miter;stroke-opacity:1" />
  </g>
</svg>
