<?xml version="1.0" encoding="UTF-8" standalone="no"?>
<svg
   xmlns:dc="http://purl.org/dc/elements/1.1/"
   xmlns:cc="http://creativecommons.org/ns#"
   xmlns:rdf="http://www.w3.org/1999/02/22-rdf-syntax-ns#"
   xmlns:svg="http://www.w3.org/2000/svg"
   xmlns="http://www.w3.org/2000/svg"
   xmlns:sodipodi="http://sodipodi.sourceforge.net/DTD/sodipodi-0.dtd"
   xmlns:inkscape="http://www.inkscape.org/namespaces/inkscape"
   version="1.0"
   viewBox="-10 -10 365 252"
   id="svg203"
   sodipodi:docname="TerritoryManager.svg"
   width="345"
   height="232"
   inkscape:version="0.92.2 5c3e80d, 2017-08-06">
  <metadata
     id="metadata207">
    <rdf:RDF>
      <cc:Work
         rdf:about="">
        <dc:format>image/svg+xml</dc:format>
        <dc:type
           rdf:resource="http://purl.org/dc/dcmitype/StillImage" />
      </cc:Work>
    </rdf:RDF>
  </metadata>
  <sodipodi:namedview
     pagecolor="#ffffff"
     bordercolor="#666666"
     borderopacity="1"
     objecttolerance="10"
     gridtolerance="10"
     guidetolerance="10"
     inkscape:pageopacity="0"
     inkscape:pageshadow="2"
     inkscape:window-width="1366"
     inkscape:window-height="703"
     id="namedview205"
     showgrid="false"
     inkscape:zoom="1.0172414"
     inkscape:cx="158.80952"
     inkscape:cy="106.79366"
     inkscape:window-x="0"
     inkscape:window-y="0"
     inkscape:window-maximized="1"
     inkscape:current-layer="svg203" />
  <defs
     id="defs5">
    <clipPath
       id="clipWmfPath1-3-7">
      <path
         d="M 0,0 H 793.7 V 1122.5 H 0 Z"
         id="path2"
         inkscape:connector-curvature="0" />
    </clipPath>
  </defs>
  <g
     transform="translate(-770.75,-305.7)"
     id="g201">
    <g
       id="g13"
       style="fill:#eeeeee;fill-rule:evenodd">
      <path
         transform="matrix(0.5,0,0,0.5,759.4,279.17)"
         d="m 183.8,453.88 h -83.528 v -332.3 h 167.09 v 332.3 z"
         clip-path="url(#clipWmfPath1-3-7)"
         id="path7"
         inkscape:connector-curvature="0" />
      <path
         transform="matrix(0.5,0,0,0.5,759.4,279.17)"
         d="M 457.44,453.88 H 279.92 V 235.05 h 355.05 v 218.83 z"
         clip-path="url(#clipWmfPath1-3-7)"
         id="path9"
         inkscape:connector-curvature="0" />
      <path
         transform="matrix(0.5,0,0,0.5,759.4,279.17)"
         d="M 457.44,202.62 H 279.92 v -81.033 h 355.05 v 81.033 z"
         clip-path="url(#clipWmfPath1-3-7)"
         id="path11"
         inkscape:connector-curvature="0" />
    </g>
    <g
       id="g29"
       style="fill-rule:evenodd">
      <path
         transform="matrix(0.5,0,0,0.5,759.4,279.17)"
         d="m 151.22,419.04 h 27.591 v 26.721 H 151.22 Z"
         clip-path="url(#clipWmfPath1-3-7)"
         id="path15"
         inkscape:connector-curvature="0"
         style="fill:#cccccc" />
      <path
         transform="matrix(0.5,0,0,0.5,759.4,279.17)"
         d="m 170.08,421.72 -0.18898,0.0378 -4.8756,1.8142 -5.5181,-1.852 -5.178,1.7008 -0.22677,0.15118 -0.11339,0.22678 v 13.493 l 0.0378,0.18897 0.11338,0.15119 0.15118,0.0756 0.15119,0.0378 0.18897,-0.0378 4.8756,-1.8142 5.5181,1.852 5.178,-1.7008 0.15118,-0.0378 0.11338,-0.11339 0.0756,-0.26456 v -13.493 l -0.0378,-0.15118 -0.11339,-0.15118 -0.15118,-0.0756 -0.15118,-0.0378 z m -5.0646,14.249 -5.5181,-1.852 v -10.62 l 5.5181,1.852 z"
         clip-path="url(#clipWmfPath1-3-7)"
         id="path17"
         inkscape:connector-curvature="0" />
      <path
         transform="matrix(0.5,0,0,0.5,759.4,279.17)"
         d="m 169.44,439.11 h 2.4567 v -2.4189 h 1.7008 v 2.4189 h 2.4567 v 1.5874 h -2.4567 v 2.4189 h -1.7008 v -2.4189 H 169.44 Z"
         clip-path="url(#clipWmfPath1-3-7)"
         id="path19"
         inkscape:connector-curvature="0" />
      <path
         transform="matrix(0.5,0,0,0.5,759.4,279.17)"
         d="m 188.83,419.04 h 27.591 v 26.721 H 188.83 Z"
         clip-path="url(#clipWmfPath1-3-7)"
         id="path21"
         inkscape:connector-curvature="0"
         style="fill:#cccccc" />
      <path
         transform="matrix(0.5,0,0,0.5,759.4,279.17)"
         d="m 207.69,421.72 -0.18898,0.0378 -4.8756,1.8142 -5.5181,-1.852 -5.178,1.7008 -0.15118,0.0378 -0.11339,0.11338 -0.0756,0.22678 v 13.493 l 0.0378,0.18897 0.11338,0.15119 0.15118,0.0756 0.15119,0.0378 0.18897,-0.0378 4.8756,-1.8142 5.5181,1.852 5.178,-1.7008 0.22677,-0.15118 0.0756,-0.11338 0.0378,-0.15118 v -13.493 l -0.0378,-0.15118 -0.11339,-0.15118 -0.15118,-0.0756 z m -5.0646,14.249 -5.5181,-1.852 v -10.62 l 5.5181,1.852 z"
         clip-path="url(#clipWmfPath1-3-7)"
         id="path23"
         inkscape:connector-curvature="0" />
      <path
         transform="matrix(0.5,0,0,0.5,759.4,279.17)"
         d="m 207.04,439.11 h 6.6142 v 1.5874 H 207.04 Z"
         clip-path="url(#clipWmfPath1-3-7)"
         id="path25"
         inkscape:connector-curvature="0" />
      <path
         transform="matrix(0.5,0,0,0.5,759.4,279.17)"
         d="M 183.8,406.87 H 112.783 V 159.69 h 142.03 v 247.18 z"
         clip-path="url(#clipWmfPath1-3-7)"
         id="path27"
         inkscape:connector-curvature="0"
         style="fill:#ffffff" />
    </g>
    <g
       id="g51"
       style="fill:#b2b2b2;fill-rule:evenodd">
      <path
         transform="matrix(0.5,0,0,0.5,759.4,279.17)"
         d="m 183.8,175.9 h -62.627 v -4.0819 h 125.29 V 175.9 Z"
         clip-path="url(#clipWmfPath1-3-7)"
         id="path31"
         inkscape:connector-curvature="0" />
      <path
         transform="matrix(0.5,0,0,0.5,759.4,279.17)"
         d="m 183.8,200.2 h -62.627 v -4.0441 h 125.29 V 200.2 Z"
         clip-path="url(#clipWmfPath1-3-7)"
         id="path33"
         inkscape:connector-curvature="0" />
      <path
         transform="matrix(0.5,0,0,0.5,759.4,279.17)"
         d="m 183.8,224.5 h -62.627 v -4.0441 h 125.29 V 224.5 Z"
         clip-path="url(#clipWmfPath1-3-7)"
         id="path35"
         inkscape:connector-curvature="0" />
      <path
         transform="matrix(0.5,0,0,0.5,759.4,279.17)"
         d="m 183.8,248.84 h -62.627 v -4.0819 h 125.29 v 4.0819 z"
         clip-path="url(#clipWmfPath1-3-7)"
         id="path37"
         inkscape:connector-curvature="0" />
      <path
         transform="matrix(0.5,0,0,0.5,759.4,279.17)"
         d="m 183.8,273.15 h -62.627 v -4.0441 h 125.29 v 4.0441 z"
         clip-path="url(#clipWmfPath1-3-7)"
         id="path39"
         inkscape:connector-curvature="0" />
      <path
         transform="matrix(0.5,0,0,0.5,759.4,279.17)"
         d="m 183.8,297.45 h -62.627 v -4.0441 h 125.29 v 4.0441 z"
         clip-path="url(#clipWmfPath1-3-7)"
         id="path41"
         inkscape:connector-curvature="0" />
      <path
         transform="matrix(0.5,0,0,0.5,759.4,279.17)"
         d="m 183.8,321.75 h -62.627 v -4.0441 h 125.29 v 4.0441 z"
         clip-path="url(#clipWmfPath1-3-7)"
         id="path43"
         inkscape:connector-curvature="0" />
      <path
         transform="matrix(0.5,0,0,0.5,759.4,279.17)"
         d="m 183.8,346.09 h -62.627 v -4.0441 h 125.29 v 4.0441 z"
         clip-path="url(#clipWmfPath1-3-7)"
         id="path45"
         inkscape:connector-curvature="0" />
      <path
         transform="matrix(0.5,0,0,0.5,759.4,279.17)"
         d="m 183.8,370.39 h -62.627 v -4.0441 h 125.29 v 4.0441 z"
         clip-path="url(#clipWmfPath1-3-7)"
         id="path47"
         inkscape:connector-curvature="0" />
      <path
         transform="matrix(0.5,0,0,0.5,759.4,279.17)"
         d="m 183.8,394.7 h -62.627 v -4.0441 h 125.29 V 394.7 Z"
         clip-path="url(#clipWmfPath1-3-7)"
         id="path49"
         inkscape:connector-curvature="0" />
    </g>
    <g
       id="g71"
       style="fill-rule:evenodd">
      <path
         transform="matrix(0.5,0,0,0.5,759.4,279.17)"
         d="m 206.78,151.56 h -48.038 v -20.258 h 96.076 v 20.258 z"
         clip-path="url(#clipWmfPath1-3-7)"
         id="path53"
         inkscape:connector-curvature="0"
         style="fill:#cccccc" />
      <path
         transform="matrix(0.5,0,0,0.5,759.4,279.17)"
         d="m 131.6,147.51 h -18.822 v -4.0441 h 37.606 v 4.0441 z"
         clip-path="url(#clipWmfPath1-3-7)"
         id="path55"
         inkscape:connector-curvature="0"
         style="fill:#b2b2b2" />
      <path
         transform="matrix(0.5,0,0,0.5,759.4,279.17)"
         d="m 388.5,156.02 h -48.038 v -20.258 h 96.076 v 20.258 z"
         clip-path="url(#clipWmfPath1-3-7)"
         id="path57"
         inkscape:connector-curvature="0"
         style="fill:#cccccc" />
      <path
         transform="matrix(0.5,0,0,0.5,759.4,279.17)"
         d="m 313.32,151.97 h -18.822 v -4.0441 h 37.606 v 4.0441 z"
         clip-path="url(#clipWmfPath1-3-7)"
         id="path59"
         inkscape:connector-curvature="0"
         style="fill:#b2b2b2" />
      <path
         transform="matrix(0.5,0,0,0.5,759.4,279.17)"
         d="m 388.5,188.45 h -48.038 v -20.258 h 96.076 v 20.258 z"
         clip-path="url(#clipWmfPath1-3-7)"
         id="path61"
         inkscape:connector-curvature="0"
         style="fill:#cccccc" />
      <path
         transform="matrix(0.5,0,0,0.5,759.4,279.17)"
         d="m 313.32,184.4 h -18.822 v -4.0441 h 37.606 V 184.4 Z"
         clip-path="url(#clipWmfPath1-3-7)"
         id="path63"
         inkscape:connector-curvature="0"
         style="fill:#b2b2b2" />
      <path
         transform="matrix(0.5,0,0,0.5,759.4,279.17)"
         d="m 534.73,188.45 h -85.644 v -52.687 h 171.25 v 52.687 z"
         clip-path="url(#clipWmfPath1-3-7)"
         id="path65"
         inkscape:connector-curvature="0"
         style="fill:#cccccc" />
      <path
         transform="matrix(0.5,0,0,0.5,759.4,279.17)"
         d="m 325.83,214.79 h 45.959 v 20.258 h -91.88 V 214.79 Z"
         clip-path="url(#clipWmfPath1-3-7)"
         id="path67"
         inkscape:connector-curvature="0"
         style="fill:#eeeeee" />
      <path
         transform="matrix(0.5,0,0,0.5,759.4,279.17)"
         d="m 426.1,214.83 h 45.959 v 20.258 H 380.141 V 214.83 Z"
         clip-path="url(#clipWmfPath1-3-7)"
         id="path69"
         inkscape:connector-curvature="0"
         style="fill:#dddddd" />
    </g>
    <g
       id="g131"
       style="fill:none;stroke:#999999;stroke-linecap:round;stroke-linejoin:round">
      <path
         transform="matrix(0.5,0,0,0.5,759.4,279.17)"
         d="M 175.45,466.05"
         clip-path="url(#clipWmfPath1-3-7)"
         id="path73"
         inkscape:connector-curvature="0"
         style="stroke-width:0.037795px" />
      <path
         transform="matrix(0.5,0,0,0.5,759.4,279.17)"
         d="M 217.29,506.61"
         clip-path="url(#clipWmfPath1-3-7)"
         id="path75"
         inkscape:connector-curvature="0"
         style="stroke-width:0.037795px" />
      <path
         transform="matrix(0.5,0,0,0.5,759.4,279.17)"
         d="m 165.09,450.07 -0.11338,38.438"
         clip-path="url(#clipWmfPath1-3-7)"
         id="path77"
         inkscape:connector-curvature="0"
         style="stroke-width:2px" />
      <g
         id="g87"
         style="stroke-width:0.037795px">
        <path
           transform="matrix(0.5,0,0,0.5,759.4,279.17)"
           d="M 175.45,466.05"
           clip-path="url(#clipWmfPath1-3-7)"
           id="path79"
           inkscape:connector-curvature="0" />
        <path
           transform="matrix(0.5,0,0,0.5,759.4,279.17)"
           d="M 217.29,506.61"
           clip-path="url(#clipWmfPath1-3-7)"
           id="path81"
           inkscape:connector-curvature="0" />
        <path
           transform="matrix(0.5,0,0,0.5,759.4,279.17)"
           d="M 73.701,258.67"
           clip-path="url(#clipWmfPath1-3-7)"
           id="path83"
           inkscape:connector-curvature="0" />
        <path
           transform="matrix(0.5,0,0,0.5,759.4,279.17)"
           d="M 31.899,299.23"
           clip-path="url(#clipWmfPath1-3-7)"
           id="path85"
           inkscape:connector-curvature="0" />
      </g>
      <path
         transform="matrix(0.5,0,0,0.5,759.4,279.17)"
         d="M 123.36,281.16 84.166,281.1222"
         clip-path="url(#clipWmfPath1-3-7)"
         id="path89"
         inkscape:connector-curvature="0"
         style="stroke-width:2px" />
      <g
         id="g99"
         style="stroke-width:0.037795px">
        <path
           transform="matrix(0.5,0,0,0.5,759.4,279.17)"
           d="M 73.701,258.67"
           clip-path="url(#clipWmfPath1-3-7)"
           id="path91"
           inkscape:connector-curvature="0" />
        <path
           transform="matrix(0.5,0,0,0.5,759.4,279.17)"
           d="M 31.899,299.23"
           clip-path="url(#clipWmfPath1-3-7)"
           id="path93"
           inkscape:connector-curvature="0" />
        <path
           transform="matrix(0.5,0,0,0.5,759.4,279.17)"
           d="M 173.22,64.214"
           clip-path="url(#clipWmfPath1-3-7)"
           id="path95"
           inkscape:connector-curvature="0" />
        <path
           transform="matrix(0.5,0,0,0.5,759.4,279.17)"
           d="M 131.38,104.77"
           clip-path="url(#clipWmfPath1-3-7)"
           id="path97"
           inkscape:connector-curvature="0" />
      </g>
      <path
         transform="matrix(0.5,0,0,0.5,759.4,279.17)"
         d="m 183.61,123.7 0.0756,-37.039"
         clip-path="url(#clipWmfPath1-3-7)"
         id="path101"
         inkscape:connector-curvature="0"
         style="stroke-width:2px" />
      <g
         id="g111"
         style="stroke-width:0.037795px">
        <path
           transform="matrix(0.5,0,0,0.5,759.4,279.17)"
           d="M 173.22,64.214"
           clip-path="url(#clipWmfPath1-3-7)"
           id="path103"
           inkscape:connector-curvature="0" />
        <path
           transform="matrix(0.5,0,0,0.5,759.4,279.17)"
           d="M 131.38,104.77"
           clip-path="url(#clipWmfPath1-3-7)"
           id="path105"
           inkscape:connector-curvature="0" />
        <path
           transform="matrix(0.5,0,0,0.5,759.4,279.17)"
           d="M 660.02,275.57"
           clip-path="url(#clipWmfPath1-3-7)"
           id="path107"
           inkscape:connector-curvature="0" />
        <path
           transform="matrix(0.5,0,0,0.5,759.4,279.17)"
           d="M 701.86,316.12"
           clip-path="url(#clipWmfPath1-3-7)"
           id="path109"
           inkscape:connector-curvature="0" />
      </g>
      <path
         transform="matrix(0.5,0,0,0.5,759.4,279.17)"
         d="m 628.35,298.02 h 21.203"
         clip-path="url(#clipWmfPath1-3-7)"
         id="path113"
         inkscape:connector-curvature="0"
         style="stroke-width:2px" />
      <g
         id="g123"
         style="stroke-width:0.037795px">
        <path
           transform="matrix(0.5,0,0,0.5,759.4,279.17)"
           d="M 660.02,275.57"
           clip-path="url(#clipWmfPath1-3-7)"
           id="path115"
           inkscape:connector-curvature="0" />
        <path
           transform="matrix(0.5,0,0,0.5,759.4,279.17)"
           d="M 701.86,316.12"
           clip-path="url(#clipWmfPath1-3-7)"
           id="path117"
           inkscape:connector-curvature="0" />
        <path
           transform="matrix(0.5,0,0,0.5,759.4,279.17)"
           d="M 434.46,64.214"
           clip-path="url(#clipWmfPath1-3-7)"
           id="path119"
           inkscape:connector-curvature="0" />
        <path
           transform="matrix(0.5,0,0,0.5,759.4,279.17)"
           d="M 392.66,104.77"
           clip-path="url(#clipWmfPath1-3-7)"
           id="path121"
           inkscape:connector-curvature="0" />
      </g>
      <path
         transform="matrix(0.5,0,0,0.5,759.4,279.17)"
         d="m 444.85,123.7 0.0756,-37.039"
         clip-path="url(#clipWmfPath1-3-7)"
         id="path125"
         inkscape:connector-curvature="0"
         style="stroke-width:2px" />
      <path
         transform="matrix(0.5,0,0,0.5,759.4,279.17)"
         d="M 434.46,64.214"
         clip-path="url(#clipWmfPath1-3-7)"
         id="path127"
         inkscape:connector-curvature="0"
         style="stroke-width:0.037795px" />
      <path
         transform="matrix(0.5,0,0,0.5,759.4,279.17)"
         d="M 392.66,104.77"
         clip-path="url(#clipWmfPath1-3-7)"
         id="path129"
         inkscape:connector-curvature="0"
         style="stroke-width:0.037795px" />
    </g>
    <g
       id="g149"
       style="fill-rule:evenodd">
      <path
         transform="matrix(0.5,0,0,0.5,759.4,279.17)"
         d="m 384.34,271.52 h -87.723 v -20.258 h 175.45 v 20.258 z"
         clip-path="url(#clipWmfPath1-3-7)"
         id="path133"
         inkscape:connector-curvature="0"
         style="fill:#cccccc" />
      <path
         transform="matrix(0.5,0,0,0.5,759.4,279.17)"
         d="M 438.65,429.58 H 296.62 V 283.69 h 284.03 v 145.89 z"
         clip-path="url(#clipWmfPath1-3-7)"
         id="path135"
         inkscape:connector-curvature="0"
         style="fill:#cccccc" />
      <path
         transform="matrix(0.5,0,0,0.5,759.4,279.17)"
         d="m 325.83,228.96 h -32.353 v -4.0441 h 64.743 v 4.0441 z"
         clip-path="url(#clipWmfPath1-3-7)"
         id="path137"
         inkscape:connector-curvature="0"
         style="fill:#b2b2b2" />
      <path
         transform="matrix(0.5,0,0,0.5,759.4,279.17)"
         d="m 426.1,228.96 h -32.391 v -4.0441 h 64.781 v 4.0441 z"
         clip-path="url(#clipWmfPath1-3-7)"
         id="path139"
         inkscape:connector-curvature="0"
         style="fill:#b2b2b2" />
      <path
         transform="matrix(0.5,0,0,0.5,759.4,279.17)"
         d="m 589,283.69 h 27.591 v 26.721 H 589 Z"
         clip-path="url(#clipWmfPath1-3-7)"
         id="path141"
         inkscape:connector-curvature="0"
         style="fill:#cccccc" />
      <path
         transform="matrix(0.5,0,0,0.5,759.4,279.17)"
         d="m 605.03,297.03 -4.422,-4.2709 v 3.2504 h -8.8441 v 2.0787 h 8.8441 v 3.2504 z m 6.5764,6.4252 v -12.813 l -0.0378,-0.45354 -0.15118,-0.37796 -0.18897,-0.37795 -0.26457,-0.30236 -0.34016,-0.26457 -0.34016,-0.22677 -0.41574,-0.11339 -0.45355,-0.0378 h -13.191 l -0.56693,0.0756 -0.56693,0.22677 -0.45354,0.34016 -0.34016,0.41575 -0.22677,0.52913 -0.0756,0.56693 v 3.2126 h 2.2299 v -3.2126 h 13.191 v 12.813 h -13.191 v -3.2126 h -2.2299 v 3.2126 l 0.0756,0.56693 0.22677,0.52913 0.34016,0.41575 0.45354,0.34016 0.56693,0.22677 0.56693,0.0756 h 13.191 l 0.56693,-0.0756 0.56693,-0.22677 0.45355,-0.34016 0.34015,-0.41575 0.18898,-0.52913 0.0756,-0.56693 z"
         clip-path="url(#clipWmfPath1-3-7)"
         id="path143"
         inkscape:connector-curvature="0" />
      <path
         transform="matrix(0.5,0,0,0.5,759.4,279.17)"
         d="m 526.37,214.87 h 45.921 v 20.258 h -91.88 V 214.87 Z"
         clip-path="url(#clipWmfPath1-3-7)"
         id="path145"
         inkscape:connector-curvature="0"
         style="fill:#dddddd" />
      <path
         transform="matrix(0.5,0,0,0.5,759.4,279.17)"
         d="m 526.37,228.96 h -32.391 v -4.0441 h 64.743 v 4.0441 z"
         clip-path="url(#clipWmfPath1-3-7)"
         id="path147"
         inkscape:connector-curvature="0"
         style="fill:#b2b2b2" />
    </g>
    <g
       id="g161"
       style="fill:none;stroke:#999999;stroke-linecap:round;stroke-linejoin:round">
      <path
         transform="matrix(0.5,0,0,0.5,759.4,279.17)"
         d="M 660.02,202.66"
         clip-path="url(#clipWmfPath1-3-7)"
         id="path151"
         inkscape:connector-curvature="0"
         style="stroke-width:0.037795px" />
      <path
         transform="matrix(0.5,0,0,0.5,759.4,279.17)"
         d="M 701.86,243.25"
         clip-path="url(#clipWmfPath1-3-7)"
         id="path153"
         inkscape:connector-curvature="0"
         style="stroke-width:0.037795px" />
      <path
         transform="matrix(0.5,0,0,0.5,759.4,279.17)"
         d="m 475.5,225.03 174.05,0.0756"
         clip-path="url(#clipWmfPath1-3-7)"
         id="path155"
         inkscape:connector-curvature="0"
         style="stroke-width:2px" />
      <path
         transform="matrix(0.5,0,0,0.5,759.4,279.17)"
         d="M 660.02,202.66"
         clip-path="url(#clipWmfPath1-3-7)"
         id="path157"
         inkscape:connector-curvature="0"
         style="stroke-width:0.037795px" />
      <path
         transform="matrix(0.5,0,0,0.5,759.4,279.17)"
         d="M 701.86,243.25"
         clip-path="url(#clipWmfPath1-3-7)"
         id="path159"
         inkscape:connector-curvature="0"
         style="stroke-width:0.037795px" />
    </g>
    <g
       id="g199">
      <text
         x="854.86566"
         y="530.27594"
         font-size="17.333px"
         letter-spacing="0px"
         word-spacing="0px"
         style="font-size:17.33300018px;line-height:125%;font-family:calibri;letter-spacing:0px;word-spacing:0px;fill:#000000;stroke-width:1px"
         xml:space="preserve"
         id="text165"><tspan
           x="854.86566"
           y="530.27594"
           id="tspan163">3</tspan></text>
      <rect
         x="847.12"
         y="512.20001"
         width="25"
         height="25"
         id="rect167"
         style="opacity:0.8;fill:none;stroke:#999999" />
      <text
         x="778.99323"
         y="421.86179"
         font-size="17.333px"
         letter-spacing="0px"
         word-spacing="0px"
         style="font-size:17.33300018px;line-height:125%;font-family:calibri;letter-spacing:0px;word-spacing:0px;fill:#000000;stroke-width:1px"
         xml:space="preserve"
         id="text171"><tspan
           x="778.99323"
           y="421.86179"
           id="tspan169">1</tspan></text>
      <rect
         x="771.25"
         y="403.78"
         width="25"
         height="25"
         id="rect173"
         style="opacity:0.8;fill:none;stroke:#999999" />
      <text
         x="828.75073"
         y="324.63342"
         font-size="17.333px"
         letter-spacing="0px"
         word-spacing="0px"
         style="font-size:17.33300018px;line-height:125%;font-family:calibri;letter-spacing:0px;word-spacing:0px;fill:#000000;stroke-width:1px"
         xml:space="preserve"
         id="text177"><tspan
           x="828.75073"
           y="324.63342"
           id="tspan175">2</tspan></text>
      <rect
         x="821"
         y="306.56"
         width="25"
         height="25"
         id="rect179"
         style="opacity:0.8;fill:none;stroke:#999999" />
      <text
         x="959.37122"
         y="324.63342"
         font-size="17.333px"
         letter-spacing="0px"
         word-spacing="0px"
         style="font-size:17.33300018px;line-height:125%;font-family:calibri;letter-spacing:0px;word-spacing:0px;fill:#000000;stroke-width:1px"
         xml:space="preserve"
         id="text183"><tspan
           x="959.37122"
           y="324.63342"
           id="tspan181">4</tspan></text>
      <rect
         x="951.62"
         y="306.56"
         width="25"
         height="25"
         id="rect185"
         style="opacity:0.8;fill:none;stroke:#999999" />
      <text
         x="1097.1523"
         y="397.28461"
         font-size="17.333px"
         letter-spacing="0px"
         word-spacing="0px"
         style="font-size:17.33300018px;line-height:125%;font-family:calibri;letter-spacing:0px;word-spacing:0px;fill:#000000;stroke-width:1px"
         xml:space="preserve"
         id="text189"><tspan
           x="1097.1523"
           y="397.28461"
           id="tspan187">6</tspan></text>
      <rect
         x="1089.4"
         y="379.20999"
         width="25"
         height="25"
         id="rect191"
         style="opacity:0.8;fill:none;stroke:#999999" />
      <text
         x="1097.1523"
         y="433.75705"
         font-size="17.333px"
         letter-spacing="0px"
         word-spacing="0px"
         style="font-size:17.33300018px;line-height:125%;font-family:calibri;letter-spacing:0px;word-spacing:0px;fill:#000000;stroke-width:1px"
         xml:space="preserve"
         id="text195"><tspan
           x="1097.1523"
           y="433.75705"
           id="tspan193">5</tspan></text>
      <rect
         x="1089.4"
         y="415.67999"
         width="25"
         height="25"
         id="rect197"
         style="opacity:0.8;fill:none;stroke:#999999;stroke-width:1px" />
    </g>
  </g>
</svg>
